<?xml version="1.0" encoding="UTF-8"?>
<kml xmlns="http://www.opengis.net/kml/2.2">
  <Document>
    <name><![CDATA[Antigua&Barbuda]]></name>
    <Style id="poly-000000-1200-77-nodesc-normal">
      <LineStyle>
        <color>ff000000</color>
        <width>1.2</width>
      </LineStyle>
      <PolyStyle>
        <color>4d000000</color>
        <fill>1</fill>
        <outline>1</outline>
      </PolyStyle>
      <BalloonStyle>
        <text><![CDATA[<h3>$[name]</h3>]]></text>
      </BalloonStyle>
    </Style>
    <Style id="poly-000000-1200-77-nodesc-highlight">
      <LineStyle>
        <color>ff000000</color>
        <width>1.8</width>
      </LineStyle>
      <PolyStyle>
        <color>4d000000</color>
        <fill>1</fill>
        <outline>1</outline>
      </PolyStyle>
      <BalloonStyle>
        <text><![CDATA[<h3>$[name]</h3>]]></text>
      </BalloonStyle>
    </Style>
    <StyleMap id="poly-000000-1200-77-nodesc">
      <Pair>
        <key>normal</key>
        <styleUrl>#poly-000000-1200-77-nodesc-normal</styleUrl>
      </Pair>
      <Pair>
        <key>highlight</key>
        <styleUrl>#poly-000000-1200-77-nodesc-highlight</styleUrl>
      </Pair>
    </StyleMap>
    <Placemark>
      <name>Saint Mary</name>
      <styleUrl>#poly-000000-1200-77-nodesc</styleUrl>
      <Polygon>
        <outerBoundaryIs>
          <LinearRing>
            <tessellate>1</tessellate>
            <coordinates>
              -61.8722534,17.1056832,0
              -61.897316,17.1178238,0
              -61.9041824,17.1043707,0
              -61.8976593,17.051533,0
              -61.8887329,17.0249444,0
              -61.831398,17.0137826,0
              -61.8327713,17.0039335,0
              -61.810112,17.0091864,0
              -61.8063354,17.0144392,0
              -61.8080521,17.0387316,0
              -61.8135452,17.0538306,0
              -61.821785,17.0607232,0
              -61.844101,17.0554717,0
              -61.8478775,17.0633489,0
              -61.8327713,17.0905884,0
              -61.8722534,17.1056832,0
            </coordinates>
          </LinearRing>
        </outerBoundaryIs>
      </Polygon>
    </Placemark>
    <Placemark>
      <name>Saint Paul</name>
      <styleUrl>#poly-000000-1200-77-nodesc</styleUrl>
      <Polygon>
        <outerBoundaryIs>
          <LinearRing>
            <tessellate>1</tessellate>
            <coordinates>
              -61.8063354,17.0144392,0
              -61.7575836,16.9986804,0
              -61.7338943,17.0026202,0
              -61.7308044,17.0180505,0
              -61.7404175,17.0262575,0
              -61.7445374,17.043327,0
              -61.7328644,17.0423423,0
              -61.7448807,17.0643336,0
              -61.7967224,17.0630207,0
              -61.8135452,17.0538306,0
              -61.8063354,17.0144392,0
            </coordinates>
          </LinearRing>
        </outerBoundaryIs>
      </Polygon>
    </Placemark>
    <Placemark>
      <name>Saint Philip</name>
      <styleUrl>#poly-000000-1200-77-nodesc</styleUrl>
      <Polygon>
        <outerBoundaryIs>
          <LinearRing>
            <tessellate>1</tessellate>
            <coordinates>
              -61.7448807,17.0643336,0
              -61.7328644,17.0423423,0
              -61.712265,17.0315098,0
              -61.6902924,17.0308533,0
              -61.6566467,17.0669592,0
              -61.6789627,17.10273,0
              -61.7067719,17.1079801,0
              -61.7304611,17.096167,0
              -61.7448807,17.0643336,0
            </coordinates>
          </LinearRing>
        </outerBoundaryIs>
      </Polygon>
    </Placemark>
    <Placemark>
      <name>Saint John</name>
      <styleUrl>#poly-000000-1200-77-nodesc</styleUrl>
      <Polygon>
        <outerBoundaryIs>
          <LinearRing>
            <tessellate>1</tessellate>
            <coordinates>
              -61.8011856,17.1644102,0
              -61.8015289,17.1716267,0
              -61.8492508,17.1726108,0
              -61.897316,17.1178238,0
              -61.8327713,17.0905884,0
              -61.8478775,17.0633489,0
              -61.844101,17.0554717,0
              -61.821785,17.0607232,0
              -61.8135452,17.0538306,0
              -61.7967224,17.0630207,0
              -61.7867661,17.0633489,0
              -61.7881393,17.0827123,0
              -61.8032455,17.082056,0
              -61.8087387,17.0928855,0
              -61.8011856,17.1644102,0
            </coordinates>
          </LinearRing>
        </outerBoundaryIs>
      </Polygon>
    </Placemark>
    <Placemark>
      <name>Saint Peter</name>
      <styleUrl>#poly-000000-1200-77-nodesc</styleUrl>
      <Polygon>
        <outerBoundaryIs>
          <LinearRing>
            <tessellate>1</tessellate>
            <coordinates>
              -61.7881393,17.0827123,0
              -61.7867661,17.0633489,0
              -61.7448807,17.0643336,0
              -61.7304611,17.096167,0
              -61.7067719,17.1079801,0
              -61.7290878,17.1115896,0
              -61.7448807,17.1138864,0
              -61.7514038,17.1188082,0
              -61.7455673,17.1316041,0
              -61.7510605,17.1388219,0
              -61.7795563,17.115527,0
              -61.7757797,17.0912447,0
              -61.7867661,17.0889475,0
              -61.7881393,17.0827123,0
            </coordinates>
          </LinearRing>
        </outerBoundaryIs>
      </Polygon>
    </Placemark>
    <Placemark>
      <name>Saint George</name>
      <styleUrl>#poly-000000-1200-77-nodesc</styleUrl>
      <Polygon>
        <outerBoundaryIs>
          <LinearRing>
            <tessellate>1</tessellate>
            <coordinates>
              -61.8015289,17.1716267,0
              -61.8011856,17.1617859,0
              -61.8087387,17.0928855,0
              -61.8032455,17.082056,0
              -61.7881393,17.0827123,0
              -61.7867661,17.0889475,0
              -61.7757797,17.0912447,0
              -61.7795563,17.115527,0
              -61.7692566,17.1427588,0
              -61.8015289,17.1716267,0
            </coordinates>
          </LinearRing>
        </outerBoundaryIs>
      </Polygon>
    </Placemark>
    <Placemark>
      <name>Long Island</name>
      <styleUrl>#poly-000000-1200-77-nodesc</styleUrl>
      <Polygon>
        <outerBoundaryIs>
          <LinearRing>
            <tessellate>1</tessellate>
            <coordinates>
              -61.7689133,17.1614579,0
              -61.7668533,17.1421027,0
              -61.7431641,17.1427588,0
              -61.7428207,17.1630981,0
              -61.7689133,17.1614579,0
            </coordinates>
          </LinearRing>
        </outerBoundaryIs>
      </Polygon>
    </Placemark>
    <Placemark>
      <name>Guiana Island</name>
      <styleUrl>#poly-000000-1200-77-nodesc</styleUrl>
      <Polygon>
        <outerBoundaryIs>
          <LinearRing>
            <tessellate>1</tessellate>
            <coordinates>
              -61.7476273,17.1230736,0
              -61.7486572,17.1165114,0
              -61.7448807,17.1138864,0
              -61.7126083,17.1191363,0
              -61.7194748,17.1361973,0
              -61.7476273,17.1230736,0
            </coordinates>
          </LinearRing>
        </outerBoundaryIs>
      </Polygon>
    </Placemark>
    <Placemark>
      <name>South Beach</name>
      <styleUrl>#poly-000000-1200-77-nodesc</styleUrl>
      <Polygon>
        <outerBoundaryIs>
          <LinearRing>
            <tessellate>1</tessellate>
            <coordinates>
              -61.7352676,17.1585055,0
              -61.7301178,17.1319322,0
              -61.7174149,17.1355411,0
              -61.7266846,17.1621139,0
              -61.7352676,17.1585055,0
            </coordinates>
          </LinearRing>
        </outerBoundaryIs>
      </Polygon>
    </Placemark>
    <Placemark>
      <name>Barbuda</name>
      <styleUrl>#poly-000000-1200-77-nodesc</styleUrl>
      <Polygon>
        <outerBoundaryIs>
          <LinearRing>
            <tessellate>1</tessellate>
            <coordinates>
              -61.8907928,17.7179477,0
              -61.8598938,17.5798849,0
              -61.733551,17.5360229,0
              -61.7287445,17.6080295,0
              -61.7362976,17.6400959,0
              -61.8283081,17.7447628,0
              -61.8907928,17.7179477,0
            </coordinates>
          </LinearRing>
        </outerBoundaryIs>
      </Polygon>
    </Placemark>
  </Document>
</kml>
