<?xml version="1.0" encoding="UTF-8"?>
<kml xmlns="http://www.opengis.net/kml/2.2">
  <Document>
    <name><![CDATA[StVincent&Grenadines]]></name>
    <Style id="poly-000000-1200-77-nodesc-normal">
      <LineStyle>
        <color>ff000000</color>
        <width>1.2</width>
      </LineStyle>
      <PolyStyle>
        <color>4d000000</color>
        <fill>1</fill>
        <outline>1</outline>
      </PolyStyle>
      <BalloonStyle>
        <text><![CDATA[<h3>$[name]</h3>]]></text>
      </BalloonStyle>
    </Style>
    <Style id="poly-000000-1200-77-nodesc-highlight">
      <LineStyle>
        <color>ff000000</color>
        <width>1.8</width>
      </LineStyle>
      <PolyStyle>
        <color>4d000000</color>
        <fill>1</fill>
        <outline>1</outline>
      </PolyStyle>
      <BalloonStyle>
        <text><![CDATA[<h3>$[name]</h3>]]></text>
      </BalloonStyle>
    </Style>
    <StyleMap id="poly-000000-1200-77-nodesc">
      <Pair>
        <key>normal</key>
        <styleUrl>#poly-000000-1200-77-nodesc-normal</styleUrl>
      </Pair>
      <Pair>
        <key>highlight</key>
        <styleUrl>#poly-000000-1200-77-nodesc-highlight</styleUrl>
      </Pair>
    </StyleMap>
    <Placemark>
      <name>Southern Grenadines</name>
      <styleUrl>#poly-000000-1200-77-nodesc</styleUrl>
      <Polygon>
        <outerBoundaryIs>
          <LinearRing>
            <tessellate>1</tessellate>
            <coordinates>
              -61.4959717,12.5719889,0
              -61.3710022,12.5438397,0
              -61.2460327,12.7488557,0
              -61.3764954,12.7649284,0
              -61.4959717,12.5719889,0
            </coordinates>
          </LinearRing>
        </outerBoundaryIs>
      </Polygon>
    </Placemark>
    <Placemark>
      <name>Northern Grenadines</name>
      <styleUrl>#poly-000000-1200-77-nodesc</styleUrl>
      <Polygon>
        <outerBoundaryIs>
          <LinearRing>
            <tessellate>1</tessellate>
            <coordinates>
              -61.3531494,12.7970708,0
              -61.2158203,12.7743037,0
              -61.1004639,12.9577209,0
              -61.2103271,13.0727899,0
              -61.2900175,12.9991771,0
              -61.3531494,12.7970708,0
            </coordinates>
          </LinearRing>
        </outerBoundaryIs>
      </Polygon>
    </Placemark>
    <Placemark>
      <name>Saint Georges</name>
      <styleUrl>#poly-000000-1200-77-nodesc</styleUrl>
      <Polygon>
        <outerBoundaryIs>
          <LinearRing>
            <tessellate>1</tessellate>
            <coordinates>
              -61.2364197,13.1573849,0
              -61.2268066,13.1376598,0
              -61.2117004,13.1413375,0
              -61.1914444,13.1229485,0
              -61.1701584,13.1246203,0
              -61.1502457,13.1463524,0
              -61.1423492,13.1704226,0
              -61.181488,13.1807854,0
              -61.1828613,13.1928192,0
              -61.204834,13.2038495,0
              -61.2285233,13.181454,0
              -61.2364197,13.1573849,0
            </coordinates>
          </LinearRing>
        </outerBoundaryIs>
      </Polygon>
    </Placemark>
    <Placemark>
      <name>Saint Andrew</name>
      <styleUrl>#poly-000000-1200-77-nodesc</styleUrl>
      <Polygon>
        <outerBoundaryIs>
          <LinearRing>
            <tessellate>1</tessellate>
            <coordinates>
              -61.2364197,13.1573849,0
              -61.2285233,13.181454,0
              -61.204834,13.2038495,0
              -61.202774,13.2369377,0
              -61.2769318,13.2031811,0
              -61.2446594,13.1540417,0
              -61.2364197,13.1573849,0
            </coordinates>
          </LinearRing>
        </outerBoundaryIs>
      </Polygon>
    </Placemark>
    <Placemark>
      <name>Charlotte</name>
      <styleUrl>#poly-000000-1200-77-nodesc</styleUrl>
      <Polygon>
        <outerBoundaryIs>
          <LinearRing>
            <tessellate>1</tessellate>
            <coordinates>
              -61.204834,13.2038495,0
              -61.1828613,13.1928192,0
              -61.181488,13.1807854,0
              -61.1423492,13.1704226,0
              -61.1114502,13.2920747,0
              -61.1313629,13.3709154,0
              -61.1739349,13.3842757,0
              -61.1711884,13.2653431,0
              -61.1911011,13.2579915,0
              -61.202774,13.2369377,0
              -61.204834,13.2038495,0
            </coordinates>
          </LinearRing>
        </outerBoundaryIs>
      </Polygon>
    </Placemark>
    <Placemark>
      <name>Saint Patrick</name>
      <styleUrl>#poly-000000-1200-77-nodesc</styleUrl>
      <Polygon>
        <outerBoundaryIs>
          <LinearRing>
            <tessellate>1</tessellate>
            <coordinates>
              -61.2769318,13.2031811,0
              -61.202774,13.2369377,0
              -61.1911011,13.2579915,0
              -61.1989975,13.2673481,0
              -61.2336731,13.2599965,0
              -61.2597656,13.2767044,0
              -61.2755585,13.2429533,0
              -61.2769318,13.2031811,0
            </coordinates>
          </LinearRing>
        </outerBoundaryIs>
      </Polygon>
    </Placemark>
    <Placemark>
      <name>Saint David</name>
      <styleUrl>#poly-000000-1200-77-nodesc</styleUrl>
      <Polygon>
        <outerBoundaryIs>
          <LinearRing>
            <tessellate>1</tessellate>
            <coordinates>
              -61.2597656,13.2767044,0
              -61.2336731,13.2599965,0
              -61.1989975,13.2673481,0
              -61.1911011,13.2579915,0
              -61.1711884,13.2653431,0
              -61.1739349,13.3842757,0
              -61.2041473,13.3685773,0
              -61.2364197,13.3097826,0
              -61.2340164,13.2967524,0
              -61.2597656,13.2767044,0
            </coordinates>
          </LinearRing>
        </outerBoundaryIs>
      </Polygon>
    </Placemark>
  </Document>
</kml>
